[
  {
    "file": "index.html",
    "title": "Blog - Koala Kombucha",
    "description": "Blog o kombuchy. Artykuły na temat naturalnego i niepasteryzowanego probiotyku - Kombucha"
  },
  {
    "file": "dieta-kombucha.html",
    "title": "Koala Kombucha - Dieta",
    "description": "Dieta na jakiej można spożywać probiotyk Koala Kombucha"
  },
  {
    "file": "prawdziwa-vs-pseudo-kombucha.html",
    "title": "Koala Kombucha - Prawdziwa vs Pseudo Kombucha",
    "description": "Kombucha w Polsce - Jak rozpoznać prawdziwą kombuchę - Jaką kombuchę kupować i pić - Koala Kombucha"
  },
  {
    "file": "historia-kombucha.html",
    "title": "Koala Kombucha - Historia Kombuchy",
    "description": "Kombucha w Polsce - Histora Kombuchy - Skąd wzięła się kombucha - Koala Kombucha"
  },
  {
    "file": "jakie-bakterie-w-kombuchy.html",
    "title": "Koala Kombucha - Jakie bakterie znajdują sie w kombuchy",
    "description": "Kombucha a probiotyki - Jakie bakterie można znaleźć w kombuchy - Kultury bakterii w kombuchy - Koala Kombucha"
  },
  {
    "file": "jak-zrobic-kombuche-w-domu.html",
    "title": "Koala Kombucha - Jak zrobić w domu kombuchę - Domowa kombucha",
    "description": "Domowy sposób na kombuchę - Koala Kombucha"
  },
  {
    "file": "wzmacnianie-odpornosci-probiotyki.html",
    "title": "Koala Kombucha - Jelita a odporność organizmu",
    "description": "Wzmacnianie odporności przez… dobre bakterie? - Koala Kombucha"
  },
  {
    "file": "kombucha-na-swiecie.html",
    "title": "Koala Kombucha - Kombucha na świecie",
    "description": "Czy wszędzie robi się kombuchę tak samo? - Koala Kombucha"
  },
  {
    "file": "cukrzyca-a-kombucha.html",
    "title": "Koala Kombucha - Kombucha a cukrzyca",
    "description": "Czy Kombuchę mogą spożywać osoby chore na cukrzycę? - Koala Kombucha"
  },
  {
    "file": "kombucha-na-redukcji.html",
    "title": "Koala Kombucha - Kombucha na redukcji",
    "description": "Czy Kombuchę można pić na redukcji? - Koala Kombucha"
  },
  {
    "file": "kombuchowe-vademecum.html",
    "title": "Kombuchowe Vademecum",
    "description": "Garść porad dla domowych siewców dobrego fermentu - Koala Kombucha"
  }
]
